hctyP4/wave.vcd
$date
	Fri Nov 11 23:14:54 2022
$end
$version
	Icarus Verilog
$end
$timescale
	1ps
$end
$scope module testbench $end
$var reg 1 ! clk $end
$var reg 1 " reset $end
$scope module u_mips $end
$var wire 1 ! clk $end
$var wire 1 " reset $end
$var wire 5 # shamt [4:0] $end
$var wire 5 $ rt [4:0] $end
$var wire 5 % rs [4:0] $end
$var wire 5 & rd [4:0] $end
$var wire 6 ' op [5:0] $end
$var wire 32 ( imm32 [31:0] $end
$var wire 26 ) imm26 [25:0] $end
$var wire 16 * imm16 [15:0] $end
$var wire 6 + func [5:0] $end
$var wire 1 , eq $end
$var wire 2 - WDsel [1:0] $end
$var wire 1 . RegWrite $end
$var wire 2 / RegDst [1:0] $end
$var wire 32 0 RD2 [31:0] $end
$var wire 32 1 RD1 [31:0] $end
$var wire 32 2 PC4 [31:0] $end
$var wire 32 3 PC [31:0] $end
$var wire 1 4 MemWrite $end
$var wire 32 5 Instr [31:0] $end
$var wire 1 6 EXTOp $end
$var wire 32 7 DMout [31:0] $end
$var wire 3 8 Br [2:0] $end
$var wire 32 9 ALUout [31:0] $end
$var wire 1 : ALUSrc $end
$var wire 4 ; ALUOp [3:0] $end
$scope module ALU $end
$var wire 32 < B [31:0] $end
$var wire 6 = shamt [5:0] $end
$var wire 32 > ALUout [31:0] $end
$var wire 4 ? ALUOp [3:0] $end
$var wire 32 @ A [31:0] $end
$upscope $end
$scope module CTRL $end
$var wire 1 4 MemWrite $end
$var wire 1 A store $end
$var wire 6 B op [5:0] $end
$var wire 1 C load $end
$var wire 1 D link $end
$var wire 6 E func [5:0] $end
$var wire 2 F WDsel [1:0] $end
$var wire 1 . RegWrite $end
$var wire 2 G RegDst [1:0] $end
$var wire 1 H R $end
$var wire 1 6 EXTOp $end
$var wire 3 I Br [2:0] $end
$var wire 1 : ALUSrc $end
$var wire 4 J ALUOp [3:0] $end
$upscope $end
$scope module DM $end
$var wire 32 K Addr [31:0] $end
$var wire 32 L RD [31:0] $end
$var wire 1 4 WE $end
$var wire 1 ! clk $end
$var wire 1 " reset $end
$var wire 32 M WD [31:0] $end
$var wire 32 N PC [31:0] $end
$var integer 32 O i [31:0] $end
$scope begin MemWrite $end
$upscope $end
$upscope $end
$scope module EXT $end
$var wire 1 6 EXTOp $end
$var wire 32 P imm32 [31:0] $end
$var wire 16 Q imm16 [15:0] $end
$upscope $end
$scope module GRF $end
$var wire 5 R A3 [4:0] $end
$var wire 32 S RD1 [31:0] $end
$var wire 32 T RD2 [31:0] $end
$var wire 32 U WD [31:0] $end
$var wire 1 . WE $end
$var wire 1 ! clk $end
$var wire 1 " reset $end
$var wire 32 V PC [31:0] $end
$var wire 5 W A2 [4:0] $end
$var wire 5 X A1 [4:0] $end
$var integer 32 Y i [31:0] $end
$scope begin RegWrite $end
$upscope $end
$upscope $end
$scope module IFU $end
$var wire 3 Z Br [2:0] $end
$var wire 1 ! clk $end
$var wire 1 , eq $end
$var wire 32 [ ra [31:0] $end
$var wire 1 " reset $end
$var wire 32 \ nPC [31:0] $end
$var wire 26 ] imm26 [25:0] $end
$var wire 32 ^ PC4 [31:0] $end
$var wire 32 _ Instr [31:0] $end
$var reg 32 ` PC [31:0] $end
$scope module IM $end
$var wire 32 a Instr [31:0] $end
$var wire 32 b PC [31:0] $end
$var wire 32 c PC3000 [31:0] $end
$upscope $end
$scope begin PC_Update $end
$upscope $end
$upscope $end
$scope module SPLT $end
$var wire 32 d Instr [31:0] $end
$var wire 5 e shamt [10:6] $end
$var wire 5 f rt [20:16] $end
$var wire 5 g rs [25:21] $end
$var wire 5 h rd [15:11] $end
$var wire 6 i op [31:26] $end
$var wire 26 j imm26 [25:0] $end
$var wire 16 k imm16 [15:0] $end
$var wire 6 l func [5:0] $end
$upscope $end
$upscope $end
$upscope $end
$enddefinitions $end
$comment Show the parameter values. $end
$dumpall
$end
#0
$dumpvars
bx l
bx k
bx j
bx i
bx h
bx g
bx f
bx e
bx d
bx c
bx b
bx a
bx `
bx _
bx ^
bx ]
bx \
bx [
b0xx Z
b100000 Y
bx X
bx W
bx V
bx U
bx T
bx S
bx R
bx Q
bx P
b10000000000 O
bx N
bx M
bx L
bx K
b0xxx J
b0xx I
xH
bx G
bx F
bx E
xD
xC
bx B
xA
bx @
b0xxx ?
bx >
bz =
bx <
b0xxx ;
x:
bx 9
b0xx 8
bx 7
x6
bx 5
x4
bx 3
bx 2
bx 1
bx 0
bx /
x.
bx -
x,
bx +
bx *
bx )
bx (
bx '
bx &
bx %
bx $
bx #
1"
0!
$end
#5000
1.
b0 7
b0 L
b0 U
1,
b0 9
b0 >
b0 K
1:
b11100 R
06
b11000000000100 \
b11 ;
b11 ?
b11 J
b0 -
b0 F
b0 8
b0 I
b0 Z
b0 /
b0 G
b0 <
b0 (
b0 P
0D
0C
04
0A
0H
b1101 '
b1101 B
b1101 i
b0 1
b0 @
b0 S
b0 [
b0 %
b0 X
b0 g
b0 0
b0 M
b0 T
b11100 $
b11100 W
b11100 f
b0 &
b0 h
b0 #
b0 e
b0 +
b0 E
b0 l
b0 *
b0 Q
b0 k
b111000000000000000000 )
b111000000000000000000 ]
b111000000000000000000 j
b110100000111000000000000000000 5
b110100000111000000000000000000 _
b110100000111000000000000000000 a
b110100000111000000000000000000 d
b11000000000100 2
b11000000000100 ^
b0 c
b11000000000000 3
b11000000000000 N
b11000000000000 V
b11000000000000 `
b11000000000000 b
b10000000000 O
b100000 Y
1!
#10000
0!
#15000
b10000000000 O
b100000 Y
1!
#20000
0!
#25000
b10000000000 O
b100000 Y
1!
#30000
0!
#35000
b10000000000 O
b100000 Y
1!
#40000
0!
#45000
b10000000000 O
b100000 Y
1!
#50000
0!
#55000
b10000000000 O
b100000 Y
1!
#60000
0!
#65000
b10000000000 O
b100000 Y
1!
#70000
0!
#75000
b10000000000 O
b100000 Y
1!
#80000
0!
#85000
b10000000000 O
b100000 Y
1!
#90000
0!
#95000
b10000000000 O
b100000 Y
1!
#100000
0!
0"
#105000
b11101 R
b11101 $
b11101 W
b11101 f
b111010000000000000000 )
b111010000000000000000 ]
b111010000000000000000 j
b11000000001000 \
b110100000111010000000000000000 5
b110100000111010000000000000000 _
b110100000111010000000000000000 a
b110100000111010000000000000000 d
b11000000001000 2
b11000000001000 ^
b100 c
b11000000000100 3
b11000000000100 N
b11000000000100 V
b11000000000100 `
b11000000000100 b
1!
#110000
0!
#115000
bx 7
bx L
b11010001010110 U
0,
b11010001010110 9
b11010001010110 >
b11010001010110 K
b1 R
b11010001010110 <
b11010001010110 (
b11010001010110 P
b1 $
b1 W
b1 f
b110 &
b110 h
b10001 #
b10001 e
b10110 +
b10110 E
b10110 l
b11010001010110 *
b11010001010110 Q
b11010001010110 k
b10011010001010110 )
b10011010001010110 ]
b10011010001010110 j
b11000000001100 \
b110100000000010011010001010110 5
b110100000000010011010001010110 _
b110100000000010011010001010110 a
b110100000000010011010001010110 d
b11000000001100 2
b11000000001100 ^
b1000 c
b11000000001000 3
b11000000001000 N
b11000000001000 V
b11000000001000 `
b11000000001000 b
1!
#120000
0!
#125000
b110100010101100 U
b1 /
b1 G
b110100010101100 9
b110100010101100 >
b110100010101100 K
0:
b11010001010110 <
b0 ;
b0 ?
b0 J
b100000100000 (
b100000100000 P
1H
b0 '
b0 B
b0 i
b11010001010110 1
b11010001010110 @
b11010001010110 S
b11010001010110 [
b1 %
b1 X
b1 g
b1 &
b1 h
b0 #
b0 e
b100000 +
b100000 E
b100000 l
b100000100000 *
b100000100000 Q
b100000100000 k
b1000010000100000100000 )
b1000010000100000100000 ]
b1000010000100000100000 j
b11000000010000 \
b1000010000100000100000 5
b1000010000100000100000 _
b1000010000100000100000 a
b1000010000100000100000 d
b11010001010110 0
b11010001010110 M
b11010001010110 T
b11000000010000 2
b11000000010000 ^
b1100 c
b11000000001100 3
b11000000001100 N
b11000000001100 V
b11000000001100 `
b11000000001100 b
1!
#130000
0!
#135000
b0 7
b0 L
16
b1 -
b1 F
b0 /
b0 G
1:
b1 R
b100 (
b100 P
b0 U
b100 <
1C
0H
b100011 '
b100011 B
b100011 i
b0 %
b0 X
b0 g
b0 &
b0 h
b100 +
b100 E
b100 l
b100 *
b100 Q
b100 k
b10000000000000100 )
b10000000000000100 ]
b10000000000000100 j
b100 9
b100 >
b100 K
b11000000010100 \
b10001100000000010000000000000100 5
b10001100000000010000000000000100 _
b10001100000000010000000000000100 a
b10001100000000010000000000000100 d
b0 1
b0 @
b0 S
b0 [
b110100010101100 0
b110100010101100 M
b110100010101100 T
b11000000010100 2
b11000000010100 ^
b10000 c
b11000000010000 3
b11000000010000 N
b11000000010000 V
b11000000010000 `
b11000000010000 b
1!
#140000
0!
#145000
b100 U
b0 -
b0 F
0.
0C
14
1A
b101011 '
b101011 B
b101011 i
b11000000011000 \
b10101100000000010000000000000100 5
b10101100000000010000000000000100 _
b10101100000000010000000000000100 a
b10101100000000010000000000000100 d
b0 0
b0 M
b0 T
b11000000011000 2
b11000000011000 ^
b10100 c
b11000000010100 3
b11000000010100 N
b11000000010100 V
b11000000010100 `
b11000000010100 b
1!
#150000
0!
#155000
0,
b100 ;
b100 ?
b100 J
06
b0 7
b0 L
b1111000011110000000000000000000 U
1.
b1111000011110000000000000000000 9
b1111000011110000000000000000000 >
b1111000011110000000000000000000 K
b10 R
b111100001111000 <
b111100001111000 (
b111100001111000 P
04
0A
b1111 '
b1111 B
b1111 i
b10 $
b10 W
b10 f
b1111 &
b1111 h
b1 #
b1 e
b111000 +
b111000 E
b111000 l
b111100001111000 *
b111100001111000 Q
b111100001111000 k
b100111100001111000 )
b100111100001111000 ]
b100111100001111000 j
b11000000011100 \
b111100000000100111100001111000 5
b111100000000100111100001111000 _
b111100000000100111100001111000 a
b111100000000100111100001111000 d
b11000000011100 2
b11000000011100 ^
b11000 c
b11000000011000 3
b11000000011000 N
b11000000011000 V
b11000000011000 `
b11000000011000 b
1!
#160000
0!
#165000
b0 7
b0 L
b1111000011110000000000000000000 U
b1 /
b1 G
b1111000011110000000000000000000 9
b1111000011110000000000000000000 >
b1111000011110000000000000000000 K
0:
b11 R
b0 <
b1 ;
b1 ?
b1 J
b1100000100010 (
b1100000100010 P
1H
b0 '
b0 B
b0 i
b1111000011110000000000000000000 1
b1111000011110000000000000000000 @
b1111000011110000000000000000000 S
b1111000011110000000000000000000 [
b10 %
b10 X
b10 g
b1 $
b1 W
b1 f
b11 &
b11 h
b0 #
b0 e
b100010 +
b100010 E
b100010 l
b1100000100010 *
b1100000100010 Q
b1100000100010 k
b10000010001100000100010 )
b10000010001100000100010 ]
b10000010001100000100010 j
b11000000100000 \
b10000010001100000100010 5
b10000010001100000100010 _
b10000010001100000100010 a
b10000010001100000100010 d
b0 0
b0 M
b0 T
b11000000100000 2
b11000000100000 ^
b11100 c
b11000000011100 3
b11000000011100 N
b11000000011100 V
b11000000011100 `
b11000000011100 b
1!
#170000
0!
#175000
b0 7
b0 L
b1001000110100 <
b10010001101000000000000000000 U
b0 /
b0 G
1:
0,
b10010001101000000000000000000 9
b10010001101000000000000000000 >
b10010001101000000000000000000 K
b100 ;
b100 ?
b100 J
b101 R
b1001000110100 (
b1001000110100 P
0H
b1111 '
b1111 B
b1111 i
b0 1
b0 @
b0 S
b0 [
b0 %
b0 X
b0 g
b101 $
b101 W
b101 f
b10 &
b10 h
b1000 #
b1000 e
b110100 +
b110100 E
b110100 l
b1001000110100 *
b1001000110100 Q
b1001000110100 k
b1010001001000110100 )
b1010001001000110100 ]
b1010001001000110100 j
b11000000100100 \
b111100000001010001001000110100 5
b111100000001010001001000110100 _
b111100000001010001001000110100 a
b111100000001010001001000110100 d
b11000000100100 2
b11000000100100 ^
b100000 c
b11000000100000 3
b11000000100000 N
b11000000100000 V
b11000000100000 `
b11000000100000 b
1!
#180000
0!
#185000
b101 U
b101 9
b101 >
b101 K
b11 ;
b11 ?
b11 J
b100 R
b101 <
b101 (
b101 P
b1101 '
b1101 B
b1101 i
b100 $
b100 W
b100 f
b0 &
b0 h
b0 #
b0 e
b101 +
b101 E
b101 l
b101 *
b101 Q
b101 k
b1000000000000000101 )
b1000000000000000101 ]
b1000000000000000101 j
b11000000101000 \
b110100000001000000000000000101 5
b110100000001000000000000000101 _
b110100000001000000000000000101 a
b110100000001000000000000000101 d
b0 0
b0 M
b0 T
b11000000101000 2
b11000000101000 ^
b100100 c
b11000000100100 3
b11000000100100 N
b11000000100100 V
b11000000100100 `
b11000000100100 b
1!
#190000
0!
#195000
b0 U
b1 /
b1 G
1,
b0 9
b0 >
b0 K
0:
b0 R
b0 <
b0 ;
b0 ?
b0 J
b0 (
b0 P
1H
b0 '
b0 B
b0 i
b0 $
b0 W
b0 f
b0 +
b0 E
b0 l
b0 *
b0 Q
b0 k
b0 )
b0 ]
b0 j
b11000000101100 \
b0 5
b0 _
b0 a
b0 d
b0 0
b0 M
b0 T
b11000000101100 2
b11000000101100 ^
b101000 c
b11000000101000 3
b11000000101000 N
b11000000101000 V
b11000000101000 `
b11000000101000 b
1!
#200000
0!
#205000
16
0.
b0 /
b0 G
1:
b100 U
b11111111111111111111111111111111 <
0,
b100 9
b100 >
b100 K
b101 R
b11111111111111111111111111111111 (
b11111111111111111111111111111111 P
14
1A
0H
b101011 '
b101011 B
b101011 i
b101 1
b101 @
b101 S
b101 [
b100 %
b100 X
b100 g
b10010001101000000000000000000 0
b10010001101000000000000000000 M
b10010001101000000000000000000 T
b101 $
b101 W
b101 f
b11111 &
b11111 h
b11111 #
b11111 e
b111111 +
b111111 E
b111111 l
b1111111111111111 *
b1111111111111111 Q
b1111111111111111 k
b100001011111111111111111 )
b100001011111111111111111 ]
b100001011111111111111111 j
b11000000110000 \
b10101100100001011111111111111111 5
b10101100100001011111111111111111 _
b10101100100001011111111111111111 a
b10101100100001011111111111111111 d
b11000000110000 2
b11000000110000 ^
b101100 c
b11000000101100 3
b11000000101100 N
b11000000101100 V
b11000000101100 `
b11000000101100 b
1!
#210000
0!
#215000
b10010001101000000000000000000 U
b1 -
b1 F
1.
b11 R
1C
04
0A
b100011 '
b100011 B
b100011 i
b1111000011110000000000000000000 0
b1111000011110000000000000000000 M
b1111000011110000000000000000000 T
b11 $
b11 W
b11 f
b100000111111111111111111 )
b100000111111111111111111 ]
b100000111111111111111111 j
b11000000110100 \
b10001100100000111111111111111111 5
b10001100100000111111111111111111 _
b10001100100000111111111111111111 a
b10001100100000111111111111111111 d
b10010001101000000000000000000 7
b10010001101000000000000000000 L
b11000000110100 2
b11000000110100 ^
b110000 c
b11000000110000 3
b11000000110000 N
b11000000110000 V
b11000000110000 `
b11000000110000 b
1!
#220000
0!
#225000
0.
0:
06
b0 U
b0 -
b0 F
1,
b1 8
b1 I
b1 Z
b1 ;
b1 ?
b1 J
b0 7
b0 L
b101 R
b10010001101000000000000000000 <
b0 9
b0 >
b0 K
b11 (
b11 P
0C
b100 '
b100 B
b100 i
b10010001101000000000000000000 1
b10010001101000000000000000000 @
b10010001101000000000000000000 S
b10010001101000000000000000000 [
b11 %
b11 X
b11 g
b101 $
b101 W
b101 f
b0 &
b0 h
b0 #
b0 e
b11 +
b11 E
b11 l
b11 *
b11 Q
b11 k
b11001010000000000000011 )
b11001010000000000000011 ]
b11001010000000000000011 j
b11000001000100 \
b10000011001010000000000000011 5
b10000011001010000000000000011 _
b10000011001010000000000000011 a
b10000011001010000000000000011 d
b10010001101000000000000000000 0
b10010001101000000000000000000 M
b10010001101000000000000000000 T
b11000000111000 2
b11000000111000 ^
b110100 c
b11000000110100 3
b11000000110100 N
b11000000110100 V
b11000000110100 `
b11000000110100 b
1!
#230000
0!
#235000
1.
1:
b10010001101000000010000000100 U
0,
b10010001101000000010000000100 9
b10010001101000000010000000100 >
b10010001101000000010000000100 K
b0 8
b0 I
b0 Z
b11 ;
b11 ?
b11 J
b10000000100 <
b111 R
b10000000100 (
b10000000100 P
b11000001001000 \
b1101 '
b1101 B
b1101 i
b0 0
b0 M
b0 T
b111 $
b111 W
b111 f
b10000 #
b10000 e
b100 +
b100 E
b100 l
b10000000100 *
b10000000100 Q
b10000000100 k
b11001110000010000000100 )
b11001110000010000000100 ]
b11001110000010000000100 j
b110100011001110000010000000100 5
b110100011001110000010000000100 _
b110100011001110000010000000100 a
b110100011001110000010000000100 d
b11000001001000 2
b11000001001000 ^
b1000100 c
b11000001000100 3
b11000001000100 N
b11000001000100 V
b11000001000100 `
b11000001000100 b
1!
#240000
0!
#245000
0.
0:
b10000000100 U
b10000000100 9
b10000000100 >
b10000000100 K
b1 8
b1 I
b1 Z
b1 ;
b1 ?
b1 J
b11 R
b10010001101000000000000000000 <
b1110 (
b1110 P
b100 '
b100 B
b100 i
b10010001101000000010000000100 1
b10010001101000000010000000100 @
b10010001101000000010000000100 S
b10010001101000000010000000100 [
b111 %
b111 X
b111 g
b11 $
b11 W
b11 f
b0 #
b0 e
b1110 +
b1110 E
b1110 l
b1110 *
b1110 Q
b1110 k
b111000110000000000001110 )
b111000110000000000001110 ]
b111000110000000000001110 j
b11000001001100 \
b10000111000110000000000001110 5
b10000111000110000000000001110 _
b10000111000110000000000001110 a
b10000111000110000000000001110 d
b10010001101000000000000000000 0
b10010001101000000000000000000 M
b10010001101000000000000000000 T
b11000001001100 2
b11000001001100 ^
b1001000 c
b11000001001000 3
b11000001001000 N
b11000001001000 V
b11000001001000 `
b11000001001000 b
1!
#250000
0!
#255000
b0 U
1.
b1 /
b1 G
b11000001010000 \
1,
b0 9
b0 >
b0 K
b0 <
b0 R
b0 ;
b0 ?
b0 J
b0 8
b0 I
b0 Z
b0 (
b0 P
1H
b0 '
b0 B
b0 i
b0 1
b0 @
b0 S
b0 [
b0 %
b0 X
b0 g
b0 0
b0 M
b0 T
b0 $
b0 W
b0 f
b0 +
b0 E
b0 l
b0 *
b0 Q
b0 k
b0 )
b0 ]
b0 j
b0 5
b0 _
b0 a
b0 d
b11000001010000 2
b11000001010000 ^
b1001100 c
b11000001001100 3
b11000001001100 N
b11000001001100 V
b11000001001100 `
b11000001001100 b
1!
#260000
0!
#265000
b0 7
b0 L
b1110111011101110000000000000000 U
b100 ;
b100 ?
b100 J
0,
b1110111011101110000000000000000 9
b1110111011101110000000000000000 >
b1110111011101110000000000000000 K
b111011101110111 <
b0 /
b0 G
1:
b1000 R
b111011101110111 (
b111011101110111 P
0H
b1111 '
b1111 B
b1111 i
b1000 $
b1000 W
b1000 f
b1110 &
b1110 h
b11101 #
b11101 e
b110111 +
b110111 E
b110111 l
b111011101110111 *
b111011101110111 Q
b111011101110111 k
b10000111011101110111 )
b10000111011101110111 ]
b10000111011101110111 j
b11000001010100 \
b111100000010000111011101110111 5
b111100000010000111011101110111 _
b111100000010000111011101110111 a
b111100000010000111011101110111 d
b11000001010100 2
b11000001010100 ^
b1010000 c
b11000001010000 3
b11000001010000 N
b11000001010000 V
b11000001010000 `
b11000001010000 b
1!
#270000
0!
#275000
bx 7
bx L
b1110111011101111111111111111111 U
b1110111011101111111111111111111 9
b1110111011101111111111111111111 >
b1110111011101111111111111111111 K
b11 ;
b11 ?
b11 J
b1111111111111111 <
b1111111111111111 (
b1111111111111111 P
b1101 '
b1101 B
b1101 i
b1110111011101110000000000000000 1
b1110111011101110000000000000000 @
b1110111011101110000000000000000 S
b1110111011101110000000000000000 [
b1000 %
b1000 X
b1000 g
b11111 &
b11111 h
b11111 #
b11111 e
b111111 +
b111111 E
b111111 l
b1111111111111111 *
b1111111111111111 Q
b1111111111111111 k
b1000010001111111111111111 )
b1000010001111111111111111 ]
b1000010001111111111111111 j
b11000001011000 \
b110101000010001111111111111111 5
b110101000010001111111111111111 _
b110101000010001111111111111111 a
b110101000010001111111111111111 d
b1110111011101110000000000000000 0
b1110111011101110000000000000000 M
b1110111011101110000000000000000 T
b11000001011000 2
b11000001011000 ^
b1010100 c
b11000001010100 3
b11000001010100 N
b11000001010100 V
b11000001010100 `
b11000001010100 b
1!
#280000
0!
#285000
0,
b0 R
b0 7
b0 L
b10001000100010000000000000000001 U
b1 /
b1 G
b10001000100010000000000000000001 9
b10001000100010000000000000000001 >
b10001000100010000000000000000001 K
0:
b1110111011101111111111111111111 <
b1 ;
b1 ?
b1 J
b100010 (
b100010 P
1H
b0 '
b0 B
b0 i
b0 %
b0 X
b0 g
b0 &
b0 h
b0 #
b0 e
b100010 +
b100010 E
b100010 l
b100010 *
b100010 Q
b100010 k
b10000000000000100010 )
b10000000000000100010 ]
b10000000000000100010 j
b11000001011100 \
b10000000000000100010 5
b10000000000000100010 _
b10000000000000100010 a
b10000000000000100010 d
b0 1
b0 @
b0 S
b0 [
b1110111011101111111111111111111 0
b1110111011101111111111111111111 M
b1110111011101111111111111111111 T
b11000001011100 2
b11000001011100 ^
b1011000 c
b11000001011000 3
b11000001011000 N
b11000001011000 V
b11000001011000 `
b11000001011000 b
1!
#290000
0!
#295000
bx 7
bx L
b1000100000000 U
b0 /
b0 G
0,
b1000100000000 9
b1000100000000 >
b1000100000000 K
1:
b1000100000000 <
b11 ;
b11 ?
b11 J
b0 R
b1000100000000 (
b1000100000000 P
0H
b1101 '
b1101 B
b1101 i
b0 0
b0 M
b0 T
b0 $
b0 W
b0 f
b10 &
b10 h
b100 #
b100 e
b0 +
b0 E
b0 l
b1000100000000 *
b1000100000000 Q
b1000100000000 k
b1000100000000 )
b1000100000000 ]
b1000100000000 j
b11000001100000 \
b110100000000000001000100000000 5
b110100000000000001000100000000 _
b110100000000000001000100000000 a
b110100000000000001000100000000 d
b11000001100000 2
b11000001100000 ^
b1011100 c
b11000001011100 3
b11000001011100 N
b11000001011100 V
b11000001011100 `
b11000001011100 b
1!
#300000
0!
#305000
b0 7
b0 L
b10010001101000000010000000100 U
b1 /
b1 G
b10010001101000000010000000100 9
b10010001101000000010000000100 >
b10010001101000000010000000100 K
0:
b1010 R
b0 <
b0 ;
b0 ?
b0 J
b101000000100000 (
b101000000100000 P
1H
b0 '
b0 B
b0 i
b10010001101000000010000000100 1
b10010001101000000010000000100 @
b10010001101000000010000000100 S
b10010001101000000010000000100 [
b111 %
b111 X
b111 g
b110 $
b110 W
b110 f
b1010 &
b1010 h
b0 #
b0 e
b100000 +
b100000 E
b100000 l
b101000000100000 *
b101000000100000 Q
b101000000100000 k
b111001100101000000100000 )
b111001100101000000100000 ]
b111001100101000000100000 j
b11000001100100 \
b111001100101000000100000 5
b111001100101000000100000 _
b111001100101000000100000 a
b111001100101000000100000 d
b11000001100100 2
b11000001100100 ^
b1100000 c
b11000001100000 3
b11000001100000 N
b11000001100000 V
b11000001100000 `
b11000001100000 b
1!
#310000
0!
#315000
b0 7
b0 L
b11 ;
b11 ?
b11 J
b0 /
b0 G
1:
b0 U
b0 <
1,
b0 9
b0 >
b0 K
b1000 R
b0 (
b0 P
0H
b1101 '
b1101 B
b1101 i
b0 1
b0 @
b0 S
b0 [
b0 %
b0 X
b0 g
b1110111011101111111111111111111 0
b1110111011101111111111111111111 M
b1110111011101111111111111111111 T
b1000 $
b1000 W
b1000 f
b0 &
b0 h
b0 +
b0 E
b0 l
b0 *
b0 Q
b0 k
b10000000000000000000 )
b10000000000000000000 ]
b10000000000000000000 j
b11000001101000 \
b110100000010000000000000000000 5
b110100000010000000000000000000 _
b110100000010000000000000000000 a
b110100000010000000000000000000 d
b11000001101000 2
b11000001101000 ^
b1100100 c
b11000001100100 3
b11000001100100 N
b11000001100100 V
b11000001100100 `
b11000001100100 b
1!
#320000
0!
#325000
b1 U
0,
b1 9
b1 >
b1 K
b1001 R
b1 <
b1 (
b1 P
b1001 $
b1001 W
b1001 f
b1 +
b1 E
b1 l
b1 *
b1 Q
b1 k
b10010000000000000001 )
b10010000000000000001 ]
b10010000000000000001 j
b11000001101100 \
b110100000010010000000000000001 5
b110100000010010000000000000001 _
b110100000010010000000000000001 a
b110100000010010000000000000001 d
b0 0
b0 M
b0 T
b11000001101100 2
b11000001101100 ^
b1101000 c
b11000001101000 3
b11000001101000 N
b11000001101000 V
b11000001101000 `
b11000001101000 b
1!
#330000
0!
#335000
b1010 R
b1010 $
b1010 W
b1010 f
b10100000000000000001 )
b10100000000000000001 ]
b10100000000000000001 j
b11000001110000 \
b110100000010100000000000000001 5
b110100000010100000000000000001 _
b110100000010100000000000000001 a
b110100000010100000000000000001 d
b10010001101000000010000000100 0
b10010001101000000010000000100 M
b10010001101000000010000000100 T
b11000001110000 2
b11000001110000 ^
b1101100 c
b11000001101100 3
b11000001101100 N
b11000001101100 V
b11000001101100 `
b11000001101100 b
1!
#340000
0!
#345000
0,
b1000 R
b1 U
b1 /
b1 G
b1 9
b1 >
b1 K
0:
b1 <
b0 ;
b0 ?
b0 J
b100000000100000 (
b100000000100000 P
1H
b0 '
b0 B
b0 i
b1000 %
b1000 X
b1000 g
b1000 &
b1000 h
b100000 +
b100000 E
b100000 l
b100000000100000 *
b100000000100000 Q
b100000000100000 k
b1000010100100000000100000 )
b1000010100100000000100000 ]
b1000010100100000000100000 j
b11000001110100 \
b1000010100100000000100000 5
b1000010100100000000100000 _
b1000010100100000000100000 a
b1000010100100000000100000 d
b1 0
b1 M
b1 T
b11000001110100 2
b11000001110100 ^
b1110000 c
b11000001110000 3
b11000001110000 N
b11000001110000 V
b11000001110000 `
b11000001110000 b
1!
#350000
0!
#355000
0.
1,
b1 <
b1 8
b1 I
b1 Z
b1 ;
b1 ?
b1 J
b0 /
b0 G
0:
b1001 R
b1111111111111110 (
b1111111111111110 P
b0 U
0H
b100 '
b100 B
b100 i
b1001 $
b1001 W
b1001 f
b11111 &
b11111 h
b11111 #
b11111 e
b111110 +
b111110 E
b111110 l
b1111111111111110 *
b1111111111111110 Q
b1111111111111110 k
b1000010011111111111111110 )
b1000010011111111111111110 ]
b1000010011111111111111110 j
b0 9
b0 >
b0 K
b11000001110000 \
b10001000010011111111111111110 5
b10001000010011111111111111110 _
b10001000010011111111111111110 a
b10001000010011111111111111110 d
b1 1
b1 @
b1 S
b1 [
b11000001111000 2
b11000001111000 ^
b1110100 c
b11000001110100 3
b11000001110100 N
b11000001110100 V
b11000001110100 `
b11000001110100 b
1!
#360000
0!
#365000
b10 U
1.
b1 /
b1 G
0,
b10 9
b10 >
b10 K
b1000 R
b0 ;
b0 ?
b0 J
b0 8
b0 I
b0 Z
b100000000100000 (
b100000000100000 P
b11000001110100 \
1H
b0 '
b0 B
b0 i
b1010 $
b1010 W
b1010 f
b1000 &
b1000 h
b0 #
b0 e
b100000 +
b100000 E
b100000 l
b100000000100000 *
b100000000100000 Q
b100000000100000 k
b1000010100100000000100000 )
b1000010100100000000100000 ]
b1000010100100000000100000 j
b1000010100100000000100000 5
b1000010100100000000100000 _
b1000010100100000000100000 a
b1000010100100000000100000 d
b11000001110100 2
b11000001110100 ^
b1110000 c
b11000001110000 3
b11000001110000 N
b11000001110000 V
b11000001110000 `
b11000001110000 b
1!
#370000
0!
#375000
0.
b0 7
b0 L
0,
b1 <
b1 8
b1 I
b1 Z
b1 ;
b1 ?
b1 J
b0 /
b0 G
0:
b1001 R
b1111111111111110 (
b1111111111111110 P
b1 U
0H
b100 '
b100 B
b100 i
b1001 $
b1001 W
b1001 f
b11111 &
b11111 h
b11111 #
b11111 e
b111110 +
b111110 E
b111110 l
b1111111111111110 *
b1111111111111110 Q
b1111111111111110 k
b1000010011111111111111110 )
b1000010011111111111111110 ]
b1000010011111111111111110 j
b1 9
b1 >
b1 K
b11000001111000 \
b10001000010011111111111111110 5
b10001000010011111111111111110 _
b10001000010011111111111111110 a
b10001000010011111111111111110 d
b10 1
b10 @
b10 S
b10 [
b11000001111000 2
b11000001111000 ^
b1110100 c
b11000001110100 3
b11000001110100 N
b11000001110100 V
b11000001110100 `
b11000001110100 b
1!
#380000
0!
#385000
1:
1.
b10 -
b10 F
0,
b10 /
b10 G
b0 7
b0 L
b11000001111100 U
b11000010001000 \
b10 8
b10 I
b10 Z
b0 ;
b0 ?
b0 J
b110000100010 9
b110000100010 >
b110000100010 K
b110000100010 <
b11111 R
b110000100010 (
b110000100010 P
1D
b11 '
b11 B
b11 i
b0 1
b0 @
b0 S
b0 [
b0 %
b0 X
b0 g
b0 0
b0 M
b0 T
b0 $
b0 W
b0 f
b1 &
b1 h
b10000 #
b10000 e
b100010 +
b100010 E
b100010 l
b110000100010 *
b110000100010 Q
b110000100010 k
b110000100010 )
b110000100010 ]
b110000100010 j
b1100000000000000110000100010 5
b1100000000000000110000100010 _
b1100000000000000110000100010 a
b1100000000000000110000100010 d
b11000001111100 2
b11000001111100 ^
b1111000 c
b11000001111000 3
b11000001111000 N
b11000001111000 V
b11000001111000 `
b11000001111000 b
1!
#390000
0!
#395000
b0 7
b0 L
b1010 R
b1 /
b1 G
b0 -
b0 F
0:
b11000010001100 \
b1 <
b10 U
b0 8
b0 I
b0 Z
b10 9
b10 >
b10 K
b101000000100000 (
b101000000100000 P
0D
1H
b0 '
b0 B
b0 i
b1 1
b1 @
b1 S
b1 [
b1010 %
b1010 X
b1010 g
b1 0
b1 M
b1 T
b1010 $
b1010 W
b1010 f
b1010 &
b1010 h
b0 #
b0 e
b100000 +
b100000 E
b100000 l
b101000000100000 *
b101000000100000 Q
b101000000100000 k
b1010010100101000000100000 )
b1010010100101000000100000 ]
b1010010100101000000100000 j
b1010010100101000000100000 5
b1010010100101000000100000 _
b1010010100101000000100000 a
b1010010100101000000100000 d
b11000010001100 2
b11000010001100 ^
b10001000 c
b11000010001000 3
b11000010001000 N
b11000010001000 V
b11000010001000 `
b11000010001000 b
1!
#400000
0!
